{
 "custom_fields": [
  {
   "_assign": null,
   "_comments": null,
   "_liked_by": null,
   "_user_tags": null,
   "allow_in_quick_entry": 0,
   "allow_on_submit": 0,
   "bold": 0,
   "collapsible": 0,
   "collapsible_depends_on": null,
   "columns": 0,
   "creation": "2021-05-12 18:09:20.460176",
   "default": null,
   "depends_on": null,
   "description": null,
   "docstatus": 0,
   "dt": "Project",
   "fetch_from": null,
   "fetch_if_empty": 0,
   "fieldname": "github_sync_id",
   "fieldtype": "Data",
   "hidden": 1,
   "hide_border": 0,
   "hide_days": 0,
   "hide_seconds": 0,
   "idx": 1,
   "ignore_user_permissions": 0,
   "ignore_xss_filter": 0,
   "in_global_search": 0,
   "in_list_view": 0,
   "in_preview": 0,
   "in_standard_filter": 0,
   "insert_after": null,
   "label": "GitHub Sync ID",
   "length": 0,
   "mandatory_depends_on": null,
   "modified": "2021-05-12 18:09:20.460176",
   "modified_by": "Administrator",
   "name": "Project-github_sync_id",
   "no_copy": 1,
   "non_negative": 0,
   "options": null,
   "owner": "Administrator",
   "parent": null,
   "parentfield": null,
   "parenttype": null,
   "permlevel": 0,
   "precision": null,
   "print_hide": 0,
   "print_hide_if_no_value": 0,
   "print_width": null,
   "read_only": 1,
   "read_only_depends_on": null,
   "report_hide": 0,
   "reqd": 0,
   "search_index": 0,
   "translatable": 0,
   "unique": 1,
   "width": null
  },
  {
   "_assign": null,
   "_comments": null,
   "_liked_by": null,
   "_user_tags": null,
   "allow_in_quick_entry": 0,
   "allow_on_submit": 0,
   "bold": 0,
   "collapsible": 0,
   "collapsible_depends_on": null,
   "columns": 0,
   "creation": "2021-05-21 14:44:14.167916",
   "default": null,
   "depends_on": null,
   "description": null,
   "docstatus": 0,
   "dt": "Project",
   "fetch_from": null,
   "fetch_if_empty": 0,
   "fieldname": "total_returned_stock",
   "fieldtype": "Currency",
   "hidden": 0,
   "hide_border": 0,
   "hide_days": 0,
   "hide_seconds": 0,
   "idx": 40,
   "ignore_user_permissions": 0,
   "ignore_xss_filter": 0,
   "in_global_search": 0,
   "in_list_view": 0,
   "in_preview": 0,
   "in_standard_filter": 0,
   "insert_after": "total_consumed_material_cost",
   "label": "Total Returned Stock",
   "length": 0,
   "mandatory_depends_on": null,
   "modified": "2021-05-21 14:44:14.167916",
   "modified_by": "Administrator",
   "name": "Project-total_returned_stock",
   "no_copy": 0,
   "non_negative": 0,
   "options": null,
   "owner": "Administrator",
   "parent": null,
   "parentfield": null,
   "parenttype": null,
   "permlevel": 0,
   "precision": "",
   "print_hide": 0,
   "print_hide_if_no_value": 0,
   "print_width": null,
   "read_only": 1,
   "read_only_depends_on": null,
   "report_hide": 0,
   "reqd": 0,
   "search_index": 0,
   "translatable": 0,
   "unique": 0,
   "width": null
  },
  {
   "_assign": null,
   "_comments": null,
   "_liked_by": null,
   "_user_tags": null,
   "allow_in_quick_entry": 0,
   "allow_on_submit": 0,
   "bold": 0,
   "collapsible": 0,
   "collapsible_depends_on": null,
   "columns": 0,
   "creation": "2021-05-21 15:34:34.756462",
   "default": null,
   "depends_on": null,
   "description": null,
   "docstatus": 0,
   "dt": "Project",
   "fetch_from": null,
   "fetch_if_empty": 0,
   "fieldname": "actual_consumed_stock",
   "fieldtype": "Currency",
   "hidden": 0,
   "hide_border": 0,
   "hide_days": 0,
   "hide_seconds": 0,
   "idx": 41,
   "ignore_user_permissions": 0,
   "ignore_xss_filter": 0,
   "in_global_search": 0,
   "in_list_view": 0,
   "in_preview": 0,
   "in_standard_filter": 0,
   "insert_after": "total_returned_stock",
   "label": "Actual Consumed Stock",
   "length": 0,
   "mandatory_depends_on": null,
   "modified": "2021-05-21 15:34:34.756462",
   "modified_by": "Administrator",
   "name": "Project-actual_consumed_stock",
   "no_copy": 0,
   "non_negative": 0,
   "options": null,
   "owner": "Administrator",
   "parent": null,
   "parentfield": null,
   "parenttype": null,
   "permlevel": 0,
   "precision": "",
   "print_hide": 0,
   "print_hide_if_no_value": 0,
   "print_width": null,
   "read_only": 1,
   "read_only_depends_on": null,
   "report_hide": 0,
   "reqd": 0,
   "search_index": 0,
   "translatable": 0,
   "unique": 0,
   "width": null
  }
 ],
 "custom_perms": [
  {
   "_assign": null,
   "_comments": null,
   "_liked_by": null,
   "_user_tags": null,
   "amend": 0,
   "cancel": 0,
   "create": 0,
   "creation": "2013-03-07 11:55:07",
   "delete": 0,
   "docstatus": 0,
   "email": 0,
   "export": 0,
   "idx": 2,
   "if_owner": 0,
   "import": 0,
   "modified": "2021-05-12 18:09:48.227071",
   "modified_by": "Administrator",
   "name": "e5d169e0f7",
   "owner": "Administrator",
   "parent": "Project",
   "parentfield": "permissions",
   "parenttype": "DocType",
   "permlevel": 1,
   "print": 0,
   "read": 1,
   "report": 1,
   "role": "All",
   "select": 0,
   "set_user_permissions": 0,
   "share": 0,
   "submit": 0,
   "write": 0
  },
  {
   "_assign": null,
   "_comments": null,
   "_liked_by": null,
   "_user_tags": null,
   "amend": 0,
   "cancel": 0,
   "create": 1,
   "creation": "2013-03-07 11:55:07",
   "delete": 1,
   "docstatus": 0,
   "email": 1,
   "export": 0,
   "idx": 1,
   "if_owner": 0,
   "import": 0,
   "modified": "2021-05-12 18:09:48.245687",
   "modified_by": "Administrator",
   "name": "62f9805958",
   "owner": "Administrator",
   "parent": "Project",
   "parentfield": "permissions",
   "parenttype": "DocType",
   "permlevel": 0,
   "print": 1,
   "read": 1,
   "report": 1,
   "role": "Projects User",
   "select": 0,
   "set_user_permissions": 0,
   "share": 1,
   "submit": 0,
   "write": 1
  },
  {
   "_assign": null,
   "_comments": null,
   "_liked_by": null,
   "_user_tags": null,
   "amend": 0,
   "cancel": 0,
   "create": 1,
   "creation": "2013-03-07 11:55:07",
   "delete": 1,
   "docstatus": 0,
   "email": 1,
   "export": 1,
   "idx": 3,
   "if_owner": 0,
   "import": 0,
   "modified": "2021-05-12 18:09:48.264760",
   "modified_by": "Administrator",
   "name": "36fa3ae79a",
   "owner": "Administrator",
   "parent": "Project",
   "parentfield": "permissions",
   "parenttype": "DocType",
   "permlevel": 0,
   "print": 1,
   "read": 1,
   "report": 1,
   "role": "Projects Manager",
   "select": 0,
   "set_user_permissions": 0,
   "share": 1,
   "submit": 0,
   "write": 1
  },
  {
   "_assign": null,
   "_comments": null,
   "_liked_by": null,
   "_user_tags": null,
   "amend": 0,
   "cancel": 0,
   "create": 0,
   "creation": "2021-05-12 18:09:48.289484",
   "delete": 0,
   "docstatus": 0,
   "email": 0,
   "export": 1,
   "idx": 0,
   "if_owner": 0,
   "import": 0,
   "modified": "2021-05-12 18:09:48.351782",
   "modified_by": "Administrator",
   "name": "395b04c7a8",
   "owner": "Administrator",
   "parent": "Project",
   "parentfield": "permissions",
   "parenttype": "DocType",
   "permlevel": 0,
   "print": 0,
   "read": 0,
   "report": 0,
   "role": "Employee Self Service",
   "select": 1,
   "set_user_permissions": 0,
   "share": 0,
   "submit": 0,
   "write": 0
  }
 ],
 "doctype": "Project",
 "property_setters": [
  {
   "_assign": null,
   "_comments": null,
   "_liked_by": null,
   "_user_tags": null,
   "creation": "2021-05-21 15:46:06.372093",
   "default_value": null,
   "doc_type": "Project",
   "docstatus": 0,
   "doctype_or_field": "DocType",
   "field_name": null,
   "idx": 0,
   "modified": "2021-05-21 15:46:06.372093",
   "modified_by": "Administrator",
   "name": "Project-main-links_order",
   "owner": "Administrator",
   "parent": null,
   "parentfield": null,
   "parenttype": null,
   "property": "links_order",
   "property_type": "Small Text",
   "row_name": null,
   "value": "[\"77242842cb\"]"
  }
 ],
 "sync_on_migrate": 1
}